<?xml version="1.0" encoding="utf-8"?>
<COLLADA xmlns="http://www.collada.org/2005/11/COLLADASchema" version="1.4.1" xmlns:xsi="http://www.w3.org/2001/XMLSchema-instance">
  <asset>
    <contributor>
      <author>Blender User</author>
      <authoring_tool>Blender 2.90.0 commit date:2020-08-31, commit time:11:26, hash:0330d1af29c0</authoring_tool>
    </contributor>
    <created>2020-10-12T11:50:17</created>
    <modified>2020-10-12T11:50:17</modified>
    <unit name="meter" meter="1"/>
    <up_axis>Z_UP</up_axis>
  </asset>
  <library_effects>
    <effect id="Color-effect">
      <profile_COMMON>
        <technique sid="common">
          <lambert>
            <emission>
              <color sid="emission">0 0 0 1</color>
            </emission>
            <diffuse>
              <color sid="diffuse">1 1 1 1</color>
            </diffuse>
            <reflectivity>
              <float sid="specular">0.5</float>
            </reflectivity>
          </lambert>
        </technique>
      </profile_COMMON>
    </effect>
    <effect id="Black-effect">
      <profile_COMMON>
        <technique sid="common">
          <lambert>
            <emission>
              <color sid="emission">0 0 0 1</color>
            </emission>
            <diffuse>
              <color sid="diffuse">0 0 0 1</color>
            </diffuse>
            <reflectivity>
              <float sid="specular">0.5</float>
            </reflectivity>
          </lambert>
        </technique>
      </profile_COMMON>
    </effect>
  </library_effects>
  <library_images/>
  <library_materials>
    <material id="Color-material" name="Color">
      <instance_effect url="#Color-effect"/>
    </material>
    <material id="Black-material" name="Black">
      <instance_effect url="#Black-effect"/>
    </material>
  </library_materials>
  <library_geometries>
    <geometry id="Button-mesh" name="Button">
      <mesh>
        <source id="Button-mesh-positions">
          <float_array id="Button-mesh-positions-array" count="798">0 0.1669999 0 0 0 0.05522745 0 0.1669999 0.04699999 0 0 0.04699999 0.01216447 0.1669999 0.04539847 0.01216447 0 0.04539847 0.02349996 0.1669999 0.04070317 0.02349996 0 0.04070317 0.033234 0.1669999 0.033234 0.033234 0 0.033234 0.04070317 0.1669999 0.02349996 0.04070317 0 0.02349996 0.04539847 0.1669999 0.01216447 0.04539847 0 0.01216447 0.04699999 0.1669999 0 0.04699999 0 0 0.04539847 0.1669999 -0.01216447 0.04539847 0 -0.01216447 0.04070317 0.1669999 -0.02349996 0.04070317 0 -0.02349996 0.033234 0.1669999 -0.033234 0.033234 0 -0.033234 0.02349996 0.1669999 -0.04070317 0.02349996 0 -0.04070317 0.01216447 0.1669999 -0.04539847 0.01216447 0 -0.04539847 0 0.1669999 -0.04699999 0 0 -0.04699999 -0.01216447 0.1669999 -0.04539847 -0.01216447 0 -0.04539847 -0.02349996 0.1669999 -0.04070317 -0.02349996 0 -0.04070317 -0.033234 0.1669999 -0.033234 -0.033234 0 -0.033234 -0.04070317 0.1669999 -0.02349996 -0.04070317 0 -0.02349996 -0.04539847 0.1669999 -0.01216447 -0.04539847 0 -0.01216447 -0.04699999 0.1669999 0 -0.04699999 0 0 -0.04539847 0.1669999 0.01216447 -0.04539847 0 0.01216447 -0.04070317 0.1669999 0.02349996 -0.04070317 0 0.02349996 -0.033234 0.1669999 0.033234 -0.033234 0 0.033234 -0.02350002 0.1669999 0.04070317 -0.02350002 0 0.04070317 -0.01216453 0.1669999 0.04539847 -0.01216453 0 0.04539847 0 -0.009963274 0.04699999 0.01216447 -0.009963274 0.04539847 0.02349996 -0.009963274 0.04070317 0.033234 -0.009963274 0.033234 0.04070317 -0.009963274 0.02349996 0.04539847 -0.009963274 0.01216447 0.04699999 -0.009963274 0 0.04539847 -0.009963274 -0.01216447 0.04070317 -0.009963274 -0.02349996 0.033234 -0.009963274 -0.033234 0.02349996 -0.009963274 -0.04070317 0.01216447 -0.009963274 -0.04539847 0 -0.009963274 -0.04699999 -0.01216447 -0.009963274 -0.04539847 -0.02349996 -0.009963274 -0.04070317 -0.033234 -0.009963274 -0.033234 -0.04070317 -0.009963274 -0.02349996 -0.04539847 -0.009963274 -0.01216447 -0.04699999 -0.009963274 0 -0.04539847 -0.009963274 0.01216447 -0.04070317 -0.009963274 0.02349996 -0.033234 -0.009963274 0.033234 -0.02350002 -0.009963274 0.04070317 -0.01216453 -0.009963274 0.04539847 0 -0.005876362 0.05307483 -0.01373678 -0.005876362 0.05126637 -0.01429396 0 0.05334562 0.0142939 0 0.05334562 -0.02761375 0 0.04782837 -0.02653741 -0.005876362 0.04596412 0.02761369 0 0.04782837 -0.05334562 0 0.0142939 -0.05126637 -0.005876362 0.01373672 0.03905171 0 0.03905171 -0.04782837 0 -0.02761375 -0.04596412 -0.005876362 -0.02653741 0.04782837 0 0.02761369 -0.0142939 0 -0.05334562 -0.01373672 -0.005876362 -0.05126637 0.05334562 0 0.0142939 0.02761375 0 -0.04782837 0.02653741 -0.005876362 -0.04596412 0.05522745 0 0 0.05334562 0 -0.0142939 0.05126637 -0.005876362 -0.01373672 0.04596418 -0.005876362 0.02653741 0.04782837 0 -0.02761369 0.01373678 -0.005876362 0.05126637 0.03905171 0 -0.03905171 -0.03752958 -0.005876362 0.03752952 -0.03905171 0 0.03905171 -0.04782843 0 0.02761369 -0.04596418 -0.005876362 0.02653735 0.0142939 0 -0.05334562 -0.05307483 -0.005876362 0 -0.05522745 0 0 0 0 -0.05522745 -0.05334562 0 -0.0142939 -0.05126637 -0.005876362 -0.01373678 -0.03752952 -0.005876362 -0.03752958 -0.03905171 0 -0.03905171 -0.02761369 0 -0.04782837 -0.02653735 -0.005876362 -0.04596418 0 -0.005876362 -0.05307483 0.01373678 -0.005876362 -0.05126631 0.03752958 -0.005876362 -0.03752952 0.04596418 -0.005876362 -0.02653741 0.05307483 -0.005876362 0 0.05126637 -0.005876362 0.01373678 0.03752958 -0.005876362 0.03752958 0.02653741 -0.005876362 0.04596418 0 -0.009963274 0.04506385 0.01166337 -0.009963274 0.04352831 0.02253192 -0.009963274 0.03902643 0.03186494 -0.009963274 0.03186494 0.03902643 -0.009963274 0.02253192 0.04352831 -0.009963274 0.01166337 0.04506385 -0.009963274 0 0.04352831 -0.009963274 -0.01166337 0.03902643 -0.009963274 -0.02253192 0.03186494 -0.009963274 -0.03186494 0.02253192 -0.009963274 -0.03902643 0.01166337 -0.009963274 -0.04352831 0 -0.009963274 -0.04506385 -0.01166337 -0.009963274 -0.04352831 -0.02253192 -0.009963274 -0.03902643 -0.03186494 -0.009963274 -0.03186494 -0.03902643 -0.009963274 -0.02253192 -0.04352831 -0.009963274 -0.01166337 -0.04506385 -0.009963274 0 -0.04352831 -0.009963274 0.01166331 -0.03902643 -0.009963274 0.02253192 -0.031865 -0.009963274 0.03186494 -0.02253192 -0.009963274 0.03902643 -0.01166337 -0.009963274 0.04352831 -0.01121062 -0.003311336 0.04183846 -0.02165716 -0.003311336 0.03751134 -0.0306279 -0.003311336 0.03062784 -0.03751134 -0.003311336 0.02165716 -0.04183846 -0.003311336 0.01121056 -0.04331433 -0.003311336 0 -0.04183846 -0.003311336 -0.01121056 -0.03751134 -0.003311336 -0.02165716 -0.03062784 -0.003311336 -0.0306279 -0.02165716 -0.003311336 -0.03751134 -0.01121056 -0.003311336 -0.04183846 0 -0.003311336 -0.04331433 0.01121056 -0.003311336 -0.04183846 0.02165716 -0.003311336 -0.03751128 0.0306279 -0.003311336 -0.03062784 0.03751134 -0.003311336 -0.02165716 0.04183846 -0.003311336 -0.01121056 0.04331433 -0.003311336 0 0.04183846 -0.003311336 0.01121056 0.03751134 -0.003311336 0.02165716 0.03062784 -0.003311336 0.0306279 0.02165716 -0.003311336 0.03751134 0.01121056 -0.003311336 0.04183846 0 -0.003311336 0.04331433 -0.01133477 -0.003548204 0.04230195 -0.02189713 -0.003548204 0.03792691 -0.03096717 -0.003548204 0.03096717 -0.03792691 -0.003548204 0.02189707 -0.04230195 -0.003548204 0.01133471 -0.04379421 -0.003548204 0 -0.04230195 -0.003548204 -0.01133477 -0.03792691 -0.003548204 -0.02189707 -0.03096717 -0.003548204 -0.03096717 -0.02189707 -0.003548204 -0.03792691 -0.01133471 -0.003548204 -0.04230195 0 -0.003548204 -0.04379421 0.01133477 -0.003548204 -0.04230195 0.02189707 -0.003548204 -0.03792685 0.03096717 -0.003548204 -0.03096717 0.03792691 -0.003548204 -0.02189707 0.04230195 -0.003548204 -0.01133471 0.04379421 -0.003548204 0 0.04230195 -0.003548204 0.01133477 0.03792691 -0.003548204 0.02189707 0.03096717 -0.003548204 0.03096717 0.02189707 -0.003548204 0.03792691 0.01133477 -0.003548204 0.04230195 0 -0.003548204 0.04379421 0 -0.01670163 0.04379421 0.01133477 -0.01670163 0.04230195 0.02189707 -0.01670163 0.03792691 0.03096717 -0.01670163 0.03096717 0.03792691 -0.01670163 0.02189707 0.04230195 -0.01670163 0.01133477 0.04379421 -0.01670163 0 0.04230195 -0.01670163 -0.01133471 0.03792691 -0.01670163 -0.02189707 0.03096717 -0.01670163 -0.03096717 0.02189707 -0.01670163 -0.03792685 0.01133477 -0.01670163 -0.04230195 0 -0.01670163 -0.04379421 -0.01133471 -0.01670163 -0.04230195 -0.02189707 -0.01670163 -0.03792691 -0.03096717 -0.01670163 -0.03096717 -0.03792691 -0.01670163 -0.02189707 -0.04230195 -0.01670163 -0.01133477 -0.04379421 -0.01670163 0 -0.04230195 -0.01670163 0.01133471 -0.03792691 -0.01670163 0.02189707 -0.03096717 -0.01670163 0.03096717 -0.02189713 -0.01670163 0.03792691 -0.01133477 -0.01670163 0.04230195 0 -0.0199204 0.04123157 0.01067149 -0.0199204 0.03982663 0.02061575 -0.0199204 0.03570759 0.02915513 -0.0199204 0.02915513 0.03570759 -0.0199204 0.02061575 0.03982663 -0.0199204 0.01067149 0.04123157 -0.0199204 0 0.03982663 -0.0199204 -0.01067149 0.03570759 -0.0199204 -0.02061575 0.02915513 -0.0199204 -0.02915513 0.02061581 -0.0199204 -0.03570759 0.01067149 -0.0199204 -0.03982663 0 -0.0199204 -0.04123157 -0.01067149 -0.0199204 -0.03982663 -0.02061575 -0.0199204 -0.03570759 -0.02915513 -0.0199204 -0.02915513 -0.03570759 -0.0199204 -0.02061581 -0.03982663 -0.0199204 -0.01067149 -0.04123157 -0.0199204 0 -0.03982663 -0.0199204 0.01067149 -0.03570759 -0.0199204 0.02061575 -0.02915513 -0.0199204 0.02915513 -0.02061581 -0.0199204 0.03570759 -0.01067155 -0.0199204 0.03982663 0 -0.01288586 0 0.008184909 -0.01663291 -0.0305466 -0.01581209 -0.01663291 0.02738732 0.0305466 -0.01663291 -0.008184909 -0.03162413 -0.01663291 0 0.02236163 -0.01663291 0.02236163 -0.01581203 -0.01663291 -0.02738732 0.01581203 -0.01663291 -0.02738732 -0.02236163 -0.01663291 0.02236163 0.03162413 -0.01663291 0 -0.0305466 -0.01663291 -0.008184909 0.01581203 -0.01663291 0.02738732 0.008184909 -0.01663291 0.0305466 -0.008184909 -0.01663291 -0.0305466 0 -0.01663291 -0.03162413 0.02236163 -0.01663291 -0.02236163 0.02738732 -0.01663291 -0.01581203 -0.02738732 -0.01663291 0.01581203 -0.0305466 -0.01663291 0.008184909 0.0305466 -0.01663291 0.008184909 0.02738732 -0.01663291 0.01581203 0 -0.01663291 0.03162413 -0.008184909 -0.01663291 0.0305466 -0.02738732 -0.01663291 -0.01581203 -0.02236163 -0.01663291 -0.02236163</float_array>
          <technique_common>
            <accessor source="#Button-mesh-positions-array" count="266" stride="3">
              <param name="X" type="float"/>
              <param name="Y" type="float"/>
              <param name="Z" type="float"/>
            </accessor>
          </technique_common>
        </source>
        <source id="Button-mesh-normals">
          <float_array id="Button-mesh-normals-array" count="846">1.73076e-6 1 0 0.3030266 -0.949518 0.08118146 0.3137088 -0.9495193 0 0.7964004 -0.6047699 0 0.7692652 -0.6047671 0.2061262 4.07238e-7 1 0 0 1 0 0 0.6788681 0.7342603 0 0.7377113 0.6751163 0.1747204 0.7377016 0.6521267 0.1900435 0.6788708 0.7092375 -8.14476e-7 1 0 0.3375407 0.7377066 0.584684 0.367122 0.6788812 0.6358789 -1.22171e-6 1 0 0.4773808 0.7377094 0.4773808 0.5191965 0.6788741 0.5191965 -0.3137088 -0.9495193 0 -0.3030266 -0.949518 0.08118146 -0.7692652 -0.6047671 0.2061262 -0.7964004 -0.6047699 0 0.584684 0.7377066 0.3375407 0.6358789 0.6788812 0.367122 0.08118146 -0.949518 -0.3030266 0 -0.9495193 -0.3137088 0 -0.6047699 -0.7964004 0.2061262 -0.6047671 -0.7692652 0.6521267 0.7377016 0.1747204 0.7092375 0.6788708 0.1900435 0.271684 -0.9495206 0.1568393 0.6897082 -0.6047727 0.3981868 0.6751163 0.7377113 0 0.7342603 0.6788681 0 4.07238e-7 1 0 0.6521267 0.7377016 -0.1747204 0.7092375 0.6788708 -0.1900435 8.14476e-7 1 0 0.584684 0.7377066 -0.3375407 0.6358789 0.6788812 -0.367122 4.07238e-7 1 0 0.4773808 0.7377094 -0.4773808 0.5191965 0.6788741 -0.5191965 -0.3030266 -0.949518 -0.08118146 -0.7692652 -0.6047671 -0.2061262 0.3375407 0.7377066 -0.584684 0.367122 0.6788812 -0.6358789 1.22171e-6 1 0 0.1568393 -0.9495206 -0.271684 0.3981868 -0.6047727 -0.6897082 0.1747204 0.7377016 -0.6521267 0.1900435 0.6788708 -0.7092375 -1.22171e-6 1 0 0 0.7377113 -0.6751163 0 0.6788681 -0.7342603 6.10857e-7 1 0 -0.1747204 0.7377016 -0.6521267 -0.1900435 0.6788708 -0.7092375 -4.07238e-7 1 0 0.221816 -0.9495238 0.221816 0.5631406 -0.6047689 0.5631406 -0.3375407 0.7377066 -0.584684 -0.367122 0.6788812 -0.6358789 -0.4773808 0.7377094 -0.4773808 -0.5191965 0.6788741 -0.5191965 -0.271684 -0.9495206 -0.1568393 -0.6897082 -0.6047727 -0.3981868 -0.584684 0.7377066 -0.3375407 -0.6358789 0.6788812 -0.367122 8.14476e-7 1 0 -0.08118146 -0.949518 0.3030266 0 -0.9495193 0.3137088 0 -0.6047699 0.7964004 -0.2061262 -0.6047671 0.7692652 -0.6521267 0.7377016 -0.1747204 -0.7092375 0.6788708 -0.1900435 -8.14476e-7 1 0 0.221816 -0.9495238 -0.221816 0.5631406 -0.6047689 -0.5631406 -0.6751163 0.7377113 0 -0.7342603 0.6788681 0 -0.6521267 0.7377016 0.1747204 -0.7092416 0.6788748 0.1900141 1.22171e-6 1 0 -0.584684 0.7377066 0.3375407 -0.6358789 0.6788812 0.367122 0.1568393 -0.9495206 0.271684 0.3981868 -0.6047727 0.6897082 -0.4773808 0.7377094 0.4773808 -0.5191965 0.6788741 0.5191965 -1.0181e-6 1 0 -0.1568393 -0.9495206 0.271684 -0.3981868 -0.6047727 0.6897082 -0.3375407 0.7377066 0.584684 -0.367122 0.6788812 0.6358789 -6.10855e-7 1 0 -0.1747204 0.7377016 0.6521267 -0.1900435 0.6788708 0.7092375 0.3030266 -0.949518 -0.08118146 -0.5766881 -0.8169646 0 -0.5570366 -0.8169687 0.1492389 0.5570366 -0.8169687 0.1492389 0.5766881 -0.8169646 0 -0.2883415 -0.8169573 -0.4994398 -0.40777 -0.8169745 -0.40777 -0.1568393 -0.9495206 -0.271684 -0.08118146 -0.949518 -0.3030266 0.1492389 -0.8169687 0.5570366 0.2883415 -0.8169573 0.4994398 -0.40777 -0.8169745 0.40777 -0.2883415 -0.8169573 0.4994398 -0.221816 -0.9495238 0.221816 -0.271684 -0.9495206 0.1568393 0.4994398 -0.8169573 -0.2883415 0.40777 -0.8169745 -0.40777 -0.5570366 -0.8169687 -0.1492389 0.499417 -0.8169698 0.2883458 0.08118146 -0.949518 0.3030266 -0.1492389 -0.8169687 -0.5570366 0 -0.8169646 0.5766881 0.271684 -0.9495206 -0.1568393 -0.4994398 -0.8169573 0.2883415 0.5570366 -0.8169687 -0.1492389 -0.4994398 -0.8169573 -0.2883415 0.1492389 -0.8169687 -0.5570366 0 -0.8169646 -0.5766881 -0.221816 -0.9495238 -0.221816 0.40777 -0.8169745 0.40777 -0.1492389 -0.8169687 0.5570366 0.2883458 -0.8169698 -0.499417 0 0.5427906 0.8398681 -0.2173573 0.542783 0.8112598 -0.419923 0.542796 0.7273496 -0.5938776 0.5427881 0.5938776 -0.5631406 -0.6047689 0.5631406 -0.8112598 0.542783 0.2173573 -0.8398681 0.5427906 0 -0.7273496 0.542796 -0.419923 -0.5938776 0.5427881 -0.5938776 -0.5631406 -0.6047689 -0.5631406 -0.2173573 0.542783 -0.8112598 0 0.5427906 -0.8398681 -0.2061262 -0.6047671 -0.7692652 0.419923 0.542796 -0.7273496 0.5938776 0.5427881 -0.5938776 0.8112598 0.542783 -0.2173573 0.8398681 0.5427906 0 0.7692652 -0.6047671 -0.2061262 0.7273496 0.542796 0.419923 0.5938776 0.5427881 0.5938776 0.2173573 0.542783 0.8112598 0.2061262 -0.6047671 0.7692652 -0.7273496 0.542796 0.419923 -0.6897082 -0.6047727 0.3981868 -0.8112598 0.542783 -0.2173573 -0.419923 0.542796 -0.7273496 -0.3981868 -0.6047727 -0.6897082 0.2173573 0.542783 -0.8112598 0.7273496 0.542796 -0.419923 0.6897082 -0.6047727 -0.3981868 0.8112598 0.542783 0.2173573 0.419923 0.542796 0.7273496 -0.837547 -0.2543496 0.4835511 -0.6838517 -0.25435 0.6838517 0.4835511 -0.2543496 0.837547 0.6838517 -0.25435 0.6838517 -0.9341643 -0.2543476 -0.2502885 -0.9671137 -0.2543446 0 -0.4835511 -0.2543496 -0.837547 -0.6838517 -0.25435 -0.6838517 0.4835511 -0.2543496 -0.837547 0.2502885 -0.2543476 -0.9341643 0.9341643 -0.2543476 0.2502885 0.9671137 -0.2543446 0 0 -0.2543446 -0.9671137 -0.9341643 -0.2543476 0.2502885 0 -0.2543446 0.9671137 0.2502885 -0.2543476 0.9341643 -0.837547 -0.2543496 -0.4835511 0.837547 -0.2543496 -0.4835511 0.6838517 -0.25435 -0.6838517 -0.2502885 -0.2543476 0.9341643 -0.2502885 -0.2543476 -0.9341643 0.9341643 -0.2543476 -0.2502885 -0.4835511 -0.2543496 0.837547 0.837547 -0.2543496 0.4835511 0.2450686 -0.3216412 -0.9145975 0.4734239 -0.3216487 -0.8200073 0.1617516 -0.9462168 -0.2801966 0.08371406 -0.9462165 -0.3125163 -0.4734239 -0.3216487 0.8200073 -0.669532 -0.3216426 0.669532 -0.2287719 -0.9462172 0.2287719 -0.1617516 -0.9462168 0.2801966 0.9145975 -0.3216412 -0.2450686 0.9468612 -0.3216428 0 0.3235338 -0.9462167 0 0.3125163 -0.9462165 -0.08371406 -0.9468612 -0.3216428 0 -0.9145975 -0.3216412 -0.2450686 -0.3125163 -0.9462165 -0.08371406 -0.3235338 -0.9462167 0 0.669532 -0.3216426 0.669532 0.4734239 -0.3216487 0.8200073 0.1617516 -0.9462168 0.2801966 0.2287719 -0.9462172 0.2287719 -0.473412 -0.3216406 -0.8200173 -0.2450686 -0.3216412 -0.9145975 -0.08371406 -0.9462165 -0.3125163 -0.1617516 -0.9462168 -0.2801966 0.669532 -0.3216426 -0.669532 0.2287719 -0.9462172 -0.2287719 -0.8200173 -0.3216406 0.473412 -0.2801966 -0.9462168 0.1617516 0.9145975 -0.3216412 0.2450686 0.3125163 -0.9462165 0.08371406 -0.8200073 -0.3216487 -0.4734239 -0.2801966 -0.9462168 -0.1617516 0.2450686 -0.3216412 0.9145975 0.08371406 -0.9462165 0.3125163 0 -0.3216428 -0.9468612 0 -0.9462167 -0.3235338 0.8200073 -0.3216487 -0.4734239 0.2801966 -0.9462168 -0.1617516 -0.9145975 -0.3216412 0.2450686 -0.3125163 -0.9462165 0.08371406 0.8200073 -0.3216487 0.4734239 0.2801966 -0.9462168 0.1617516 0 -0.3216428 0.9468612 -0.2450686 -0.3216412 0.9145975 -0.08371406 -0.9462165 0.3125163 0 -0.9462167 0.3235338 -0.669532 -0.3216426 -0.669532 -0.2287719 -0.9462172 -0.2287719 0.9659304 0 -0.2588022 1 0 0 0 0 1 -0.2588022 0 0.9659304 0.4999893 0 -0.8660317 0.7071068 0 -0.7071068 -0.4999893 0 0.8660317 0.4999893 0 0.8660317 0.2588022 0 0.9659304 -0.7071068 0 -0.7071068 -0.4999893 0 -0.8660317 -1 0 0 -0.9659304 0 -0.2588022 -0.8660317 0 -0.4999893 -0.7071068 0 0.7071068 -0.8660317 0 0.4999893 0.8660317 0 -0.4999893 -0.2588022 0 -0.9659304 0 0 -1 0.2588022 0 -0.9659304 0.7071068 0 0.7071068 0.9659304 0 0.2588022 -0.9659304 0 0.2588022 0.8660317 0 0.4999893 -0.05960345 -0.9731269 -0.222422 0 -0.9731279 -0.2302656 0 -1 0 0 -0.9731279 0.2302656 -0.05960345 -0.9731269 0.222422 0.05960345 -0.9731269 -0.222422 0.1151179 -0.9731306 -0.1994115 -0.1994115 -0.9731306 0.1151179 -0.222422 -0.9731269 0.05960345 0.222422 -0.9731269 -0.05960345 0.2302656 -0.9731279 0 -0.1994115 -0.9731306 -0.1151179 -0.1628189 -0.9731291 -0.1628189 0.1628189 -0.9731291 0.1628189 0.1151179 -0.9731306 0.1994115 -0.1151179 -0.9731306 0.1994115 0.1628189 -0.9731291 -0.1628189 -0.2302656 -0.9731279 0 0.222422 -0.9731269 0.05960345 -0.1151179 -0.9731306 -0.1994115 0.05960345 -0.9731269 0.222422 -0.1628189 -0.9731291 0.1628189 0.1994115 -0.9731306 -0.1151179 -0.222422 -0.9731269 -0.05960345 0.1994115 -0.9731306 0.1151179</float_array>
          <technique_common>
            <accessor source="#Button-mesh-normals-array" count="282" stride="3">
              <param name="X" type="float"/>
              <param name="Y" type="float"/>
              <param name="Z" type="float"/>
            </accessor>
          </technique_common>
        </source>
        <vertices id="Button-mesh-vertices">
          <input semantic="POSITION" source="#Button-mesh-positions"/>
        </vertices>
        <polylist material="Color-material" count="264">
          <input semantic="VERTEX" source="#Button-mesh-vertices" offset="0"/>
          <input semantic="NORMAL" source="#Button-mesh-normals" offset="1"/>
          <vcount>3 4 3 4 4 3 4 4 3 4 4 3 4 4 3 4 4 3 4 4 3 4 4 3 4 4 3 4 4 3 4 4 3 4 4 3 4 4 3 4 4 3 4 4 3 4 4 3 4 4 3 4 4 3 4 4 3 4 4 3 4 4 3 4 4 3 4 4 3 4 4 4 4 4 4 4 4 4 4 4 4 4 4 4 4 4 4 4 4 4 4 4 4 4 4 4 4 4 4 4 4 4 4 4 4 4 4 4 4 4 4 4 4 4 4 4 4 4 4 4 4 4 4 4 4 4 4 4 4 4 4 4 4 4 4 4 4 4 4 4 4 4 4 4 4 4 4 4 4 4 4 4 4 4 4 4 4 4 4 4 4 4 4 4 4 4 4 4 4 4 4 4 4 4 4 4 4 4 4 4 4 4 4 4 4 4 4 4 4 4 4 4 4 4 4 4 4 4 4 4 4 4 4 4 4 4 4 4 4 4 4 4 4 4 4 3 3 3 3 3 3 3 3 3 3 3 3 3 3 3 3 3 3 3 3 3 3 3 3 4 4 4 4 4 4 4 4 4 4 4 4 4 4 4 4 4 4 4 4 4 4 4 4 4 </vcount>
          <p>0 0 2 0 4 0 55 1 56 2 117 3 118 4 0 5 4 5 6 5 7 6 5 6 77 6 80 6 2 7 3 8 5 9 4 10 0 11 6 11 8 11 23 6 21 6 98 6 90 6 4 10 5 9 7 12 6 13 0 14 8 14 10 14 39 6 37 6 107 6 105 6 6 13 7 12 9 15 8 16 0 6 10 6 12 6 68 17 69 18 82 19 104 20 8 16 9 15 11 21 10 22 0 6 12 6 14 6 61 23 62 24 113 25 114 26 10 22 11 21 13 27 12 28 0 6 14 6 16 6 54 29 55 1 118 4 95 30 12 28 13 27 15 31 14 32 0 33 16 33 18 33 17 6 15 6 92 6 93 6 14 32 15 31 17 34 16 35 0 36 18 36 20 36 33 6 31 6 111 6 110 6 16 35 17 34 19 37 18 38 0 39 20 39 22 39 49 6 47 6 78 6 76 6 18 38 19 37 21 40 20 41 0 6 22 6 24 6 67 42 68 17 104 20 108 43 20 41 21 40 23 44 22 45 0 46 24 46 26 46 60 47 61 23 114 26 91 48 22 45 23 44 25 49 24 50 0 51 26 51 28 51 11 6 9 6 83 6 86 6 24 50 25 49 27 52 26 53 0 54 28 54 30 54 27 6 25 6 103 6 106 6 26 53 27 52 29 55 28 56 0 57 30 57 32 57 53 58 54 29 95 30 119 59 28 56 29 55 31 60 30 61 0 14 32 14 34 14 43 6 41 6 81 6 101 6 30 61 31 60 33 62 32 63 0 6 34 6 36 6 66 64 67 42 108 43 85 65 32 63 33 62 35 66 34 67 0 68 36 68 38 68 73 69 50 70 74 71 75 72 34 67 35 66 37 73 36 74 0 75 38 75 40 75 59 76 60 47 91 48 115 77 36 74 37 73 39 78 38 79 0 6 40 6 42 6 21 6 19 6 96 6 98 6 38 79 39 78 41 80 40 81 0 82 42 82 44 82 37 6 35 6 84 6 107 6 40 81 41 80 43 83 42 84 0 6 44 6 46 6 52 85 53 58 119 59 120 86 42 84 43 83 45 87 44 88 0 89 46 89 48 89 72 90 73 69 75 72 79 91 44 88 45 87 47 92 46 93 0 94 48 94 2 94 5 6 3 6 1 6 77 6 46 93 47 92 49 95 48 96 57 97 56 2 127 98 128 99 68 17 67 42 138 100 139 101 53 58 52 85 123 102 124 103 64 104 63 105 134 106 135 107 60 47 59 76 130 108 131 109 71 110 70 111 141 112 142 113 56 2 55 1 126 114 127 98 67 42 66 64 137 115 138 100 52 85 51 116 122 117 123 102 63 105 62 24 133 118 134 106 59 76 58 119 129 120 130 108 70 111 69 18 140 121 141 112 55 1 54 29 125 122 126 114 50 70 73 69 144 123 121 124 66 64 65 125 136 126 137 115 51 116 50 70 121 124 122 117 62 24 61 23 132 127 133 118 73 69 72 90 143 128 144 123 58 119 57 97 128 99 129 120 69 18 68 17 139 101 140 121 54 29 53 58 124 103 125 122 65 125 64 104 135 107 136 126 61 23 60 47 131 109 132 127 72 90 71 110 142 113 143 128 1 129 76 130 75 72 74 71 78 131 100 132 99 133 79 91 81 134 105 135 104 20 82 19 84 136 110 137 109 138 85 65 87 139 106 140 113 25 88 141 90 142 98 143 115 77 91 48 93 144 92 145 117 3 94 146 86 147 83 148 119 59 95 30 77 149 1 129 74 71 97 150 76 130 78 131 79 91 75 72 101 151 81 134 82 19 102 152 107 153 84 136 85 65 108 43 111 154 87 139 88 141 112 155 103 156 90 142 91 48 114 26 96 157 93 144 94 146 116 158 89 159 86 147 95 30 118 4 80 160 77 149 97 150 120 86 100 132 101 151 102 152 99 133 105 135 107 153 108 43 104 20 110 137 111 154 112 155 109 138 106 140 103 156 114 26 113 25 98 143 96 157 116 158 115 77 92 145 89 159 118 4 117 3 83 148 80 160 120 86 119 59 3 6 49 6 76 6 1 6 62 24 63 105 88 141 113 25 45 6 43 6 101 6 100 6 29 6 27 6 106 6 87 6 69 18 70 111 102 152 82 19 13 6 11 6 86 6 89 6 56 2 57 97 94 146 117 3 63 105 64 104 112 155 88 141 35 6 33 6 110 6 84 6 19 6 17 6 93 6 96 6 70 111 71 110 99 133 102 152 50 70 51 116 97 150 74 71 57 97 58 119 116 158 94 146 41 6 39 6 105 6 81 6 25 6 23 6 90 6 103 6 64 104 65 125 109 138 112 155 9 6 7 6 80 6 83 6 71 110 72 90 79 91 99 133 51 116 52 85 120 86 97 150 47 6 45 6 100 6 78 6 58 119 59 76 115 77 116 158 31 6 29 6 87 6 111 6 15 6 13 6 89 6 92 6 65 125 66 64 85 65 109 138 130 108 129 120 160 161 159 162 136 126 135 107 154 163 153 164 127 98 126 114 163 165 162 166 124 103 123 102 166 167 165 168 144 123 143 128 146 169 145 170 139 101 138 100 151 171 150 172 121 124 144 123 145 170 168 173 128 99 127 98 162 166 161 174 134 106 133 118 156 175 155 176 125 122 124 103 165 168 164 177 142 113 141 112 148 178 147 179 133 118 132 127 157 180 156 175 126 114 125 122 164 177 163 165 143 128 142 113 147 179 146 169 123 102 122 117 167 181 166 167 140 121 139 101 150 172 149 182 131 109 130 108 159 162 158 183 122 117 121 124 168 173 167 181 141 112 140 121 149 182 148 178 132 127 131 109 158 183 157 180 138 100 137 115 152 184 151 171 129 120 128 99 161 174 160 161 135 107 134 106 155 176 154 163 137 115 136 126 153 164 152 184 204 185 203 186 227 187 228 188 215 189 214 190 238 191 239 192 200 193 199 194 223 195 224 196 211 197 210 198 234 199 235 200 196 201 195 202 219 203 220 204 207 205 206 206 230 207 231 208 203 186 202 209 226 210 227 187 214 190 213 211 237 212 238 191 199 194 198 213 222 214 223 195 210 198 209 215 233 216 234 199 195 202 194 217 218 218 219 203 206 206 205 219 229 220 230 207 202 209 201 221 225 222 226 210 213 211 212 223 236 224 237 212 198 213 197 225 221 226 222 214 193 227 216 228 240 229 217 230 209 215 208 231 232 232 233 216 194 217 193 227 217 230 218 218 205 219 204 185 228 188 229 220 216 228 215 189 239 192 240 229 201 221 200 193 224 196 225 222 212 223 211 197 235 200 236 224 197 225 196 201 220 204 221 226 208 231 207 205 231 208 232 232 199 194 200 193 185 233 186 234 216 228 193 227 192 235 169 236 202 209 203 186 182 237 183 238 215 189 216 228 169 236 170 239 194 217 195 202 190 240 191 241 207 205 208 231 177 242 178 243 210 198 211 197 174 244 175 245 208 231 209 215 176 246 177 242 213 211 214 190 171 247 172 248 200 193 201 221 184 249 185 233 205 219 206 206 179 250 180 251 203 186 204 185 181 252 182 237 195 202 196 201 189 253 190 240 193 227 194 217 191 241 192 235 198 213 199 194 186 234 187 254 211 197 212 223 173 255 174 244 201 221 202 209 183 238 184 249 214 190 215 189 170 239 171 247 212 223 213 211 172 248 173 255 206 206 207 205 178 243 179 250 197 225 198 213 187 254 188 256 204 185 205 219 180 251 181 252 209 215 210 198 175 245 176 246 196 201 197 225 188 256 189 253 253 257 262 258 241 259 255 260 242 261 241 259 263 262 243 263 241 259 257 264 244 265 241 259 259 266 245 267 241 259 261 268 246 269 241 259 265 270 247 271 241 259 242 261 248 272 241 259 243 263 249 273 241 259 244 265 250 274 241 259 245 267 251 275 241 259 246 269 252 276 241 259 247 271 254 277 241 259 248 272 256 278 241 259 249 273 258 279 241 259 250 274 260 280 241 259 251 275 264 281 241 259 252 276 253 257 241 259 254 277 255 260 241 259 256 278 257 264 241 259 258 279 259 266 241 259 260 280 261 268 241 259 262 258 263 262 241 259 264 281 265 270 241 259 48 96 49 95 3 8 2 7 233 216 232 232 265 270 264 281 217 230 240 229 263 262 262 258 222 214 221 226 261 268 260 280 237 212 236 224 259 266 258 279 226 210 225 222 257 264 256 278 230 207 229 220 255 260 254 277 219 203 218 218 253 257 252 276 234 199 233 216 264 281 251 275 223 195 222 214 260 280 250 274 238 191 237 212 258 279 249 273 227 187 226 210 256 278 248 272 231 208 230 207 254 277 247 271 220 204 219 203 252 276 246 269 235 200 234 199 251 275 245 267 224 196 223 195 250 274 244 265 239 192 238 191 249 273 243 263 228 188 227 187 248 272 242 261 232 232 231 208 247 271 265 270 221 226 220 204 246 269 261 268 236 224 235 200 245 267 259 266 225 222 224 196 244 265 257 264 240 229 239 192 243 263 263 262 229 220 228 188 242 261 255 260 218 218 217 230 262 258 253 257</p>
        </polylist>
      </mesh>
    </geometry>
    <geometry id="Ring-mesh" name="Ring">
      <mesh>
        <source id="Ring-mesh-positions">
          <float_array id="Ring-mesh-positions-array" count="360">0 -0.006249964 0.06216567 0 -0.006249964 0.04699999 0.01216447 -0.006249964 0.04539847 0.02349996 -0.006249964 0.04070317 0.033234 -0.006249964 0.033234 0.04070317 -0.006249964 0.02349996 0.04539847 -0.006249964 0.01216447 0.04699999 -0.006249964 0 0.04539847 -0.006249964 -0.01216447 0.04070317 -0.006249964 -0.02349996 0.033234 -0.006249964 -0.033234 0.02349996 -0.006249964 -0.04070317 0.01216447 -0.006249964 -0.04539847 0 -0.006249964 -0.04699999 -0.01216447 -0.006249964 -0.04539847 -0.02349996 -0.006249964 -0.04070317 -0.033234 -0.006249964 -0.033234 -0.04070317 -0.006249964 -0.02349996 -0.04539847 -0.006249964 -0.01216447 -0.04699999 -0.006249964 0 -0.04539847 -0.006249964 0.01216447 -0.04070317 -0.006249964 0.02349996 -0.033234 -0.006249964 0.033234 -0.02350002 -0.006249964 0.04070317 -0.01216453 -0.006249964 0.04539847 -0.01608967 -0.006249964 0.06004744 0.01608961 -0.006249964 0.06004744 -0.03108286 -0.006249964 0.05383706 0.0310828 -0.006249964 0.05383706 -0.06004744 -0.006249964 0.01608961 0.04395776 -0.006249964 0.04395776 -0.05383706 -0.006249964 -0.03108286 0.05383706 -0.006249964 0.0310828 -0.01608961 -0.006249964 -0.06004744 0.06004744 -0.006249964 0.01608967 0.03108286 -0.006249964 -0.05383706 0.06216567 -0.006249964 0 0.06004744 -0.006249964 -0.01608961 0.05383706 -0.006249964 -0.0310828 0.04395776 -0.006249964 -0.04395776 -0.04395782 -0.006249964 0.04395776 -0.05383706 -0.006249964 0.0310828 0.01608967 -0.006249964 -0.06004744 -0.06216567 -0.006249964 0 0 -0.006249964 -0.06216567 -0.06004744 -0.006249964 -0.01608967 -0.04395776 -0.006249964 -0.04395776 -0.0310828 -0.006249964 -0.05383706 0.01216447 0.006250023 0.04539847 0 0.006250023 0.04699999 0.04782837 0.006250023 0.02761369 0.04070317 0.006250023 0.02349996 0.02349996 0.006250023 0.04070317 0.033234 0.006250023 0.033234 0.03905171 0.006250023 0.03905171 0 0.006250023 -0.05522745 0 0.006250023 -0.04699999 0.01216447 0.006250023 -0.04539847 0.0142939 0.006250023 -0.05334562 0.04539847 0.006250023 0.01216447 0.04699999 0.006250023 0 -0.04782843 0.006250023 0.02761369 -0.04070317 0.006250023 0.02349996 0.04539847 0.006250023 -0.01216447 -0.04539847 0.006250023 0.01216447 -0.05334562 0.006250023 0.0142939 0.04070317 0.006250023 -0.02349996 0.033234 0.006250023 -0.033234 0.02349996 0.006250023 -0.04070317 -0.01216447 0.006250023 -0.04539847 0.03905171 0.006250023 -0.03905171 -0.02349996 0.006250023 -0.04070317 0.04782837 0.006250023 -0.02761369 -0.033234 0.006250023 -0.033234 -0.05334562 0.006250023 -0.0142939 -0.04539847 0.006250023 -0.01216447 -0.04070317 0.006250023 -0.02349996 -0.04782837 0.006250023 -0.02761375 -0.04699999 0.006250023 0 -0.033234 0.006250023 0.033234 0.0142939 0.006250023 0.05334562 -0.02350002 0.006250023 0.04070317 0 0.006250023 0.05522745 -0.01216453 0.006250023 0.04539847 0.02761369 0.006250023 0.04782837 0.05334562 0.006250023 0.0142939 0.05522745 0.006250023 0 0.05334562 0.006250023 -0.0142939 0.02761375 0.006250023 -0.04782837 -0.0142939 0.006250023 -0.05334562 -0.02761369 0.006250023 -0.04782837 -0.03905171 0.006250023 -0.03905171 -0.05522745 0.006250023 0 -0.03905171 0.006250023 0.03905171 -0.02761375 0.006250023 0.04782837 -0.01429396 0.006250023 0.05334562 0.04782837 0 -0.02761369 0.05334562 0 -0.0142939 -0.02761375 0 0.04782837 -0.03905171 0 0.03905171 0.03905171 0 -0.03905171 -0.01429396 0 0.05334562 0.02761375 0 -0.04782837 0 0 0.05522745 0.0142939 0 -0.05334562 0 0 -0.05522745 -0.0142939 0 -0.05334562 -0.02761369 0 -0.04782837 0.0142939 0 0.05334562 -0.03905171 0 -0.03905171 0.02761369 0 0.04782837 -0.04782837 0 -0.02761375 0.03905171 0 0.03905171 -0.05334562 0 -0.0142939 0.04782837 0 0.02761369 -0.05522745 0 0 0.05334562 0 0.0142939 -0.05334562 0 0.0142939 0.05522745 0 0 -0.04782843 0 0.02761369</float_array>
          <technique_common>
            <accessor source="#Ring-mesh-positions-array" count="120" stride="3">
              <param name="X" type="float"/>
              <param name="Y" type="float"/>
              <param name="Z" type="float"/>
            </accessor>
          </technique_common>
        </source>
        <source id="Ring-mesh-normals">
          <float_array id="Ring-mesh-normals-array" count="222">0 -1 0 0.4711248 -0.3348871 0.8160222 0.2438804 -0.3348892 0.9101492 0.4711248 -0.3348871 -0.8160222 0.6662758 -0.3348928 -0.6662758 -0.9422573 -0.3348898 0 -0.9101492 -0.3348892 -0.2438804 0.9101492 -0.3348892 -0.2438804 0.9422573 -0.3348898 0 -0.6662758 -0.3348928 -0.6662758 -0.4711248 -0.3348871 -0.8160222 -0.2438804 -0.3348892 0.9101492 -0.4711248 -0.3348871 0.8160222 0.8160222 -0.3348871 0.4711248 0.6662758 -0.3348928 0.6662758 0 -0.3348898 -0.9422573 0.2438804 -0.3348892 -0.9101492 -0.8160222 -0.3348871 0.4711248 -0.9101492 -0.3348892 0.2438804 0.8160222 -0.3348871 -0.4711248 -0.8160222 -0.3348871 -0.4711248 0 -0.3348898 0.9422573 -0.6662758 -0.3348928 0.6662758 -0.2438804 -0.3348892 -0.9101492 0.9101492 -0.3348892 0.2438804 0 1 0 0.1900435 0.6788708 0.7092375 0.367122 0.6788812 0.6358789 0.5191965 0.6788741 -0.5191965 0.367122 0.6788812 -0.6358789 -0.7092375 0.6788708 -0.1900435 -0.7342603 0.6788681 0 0.7342603 0.6788681 0 0.7092375 0.6788708 -0.1900435 -0.367122 0.6788812 -0.6358789 -0.5191965 0.6788741 -0.5191965 -0.367122 0.6788812 0.6358789 -0.1900435 0.6788708 0.7092375 0.5191965 0.6788741 0.5191965 0.6358789 0.6788812 0.367122 0.1900435 0.6788708 -0.7092375 0 0.6788681 -0.7342603 -0.7092416 0.6788748 0.1900141 -0.6358789 0.6788812 0.367122 0.6358789 0.6788812 -0.367122 -0.6358789 0.6788812 -0.367122 0 0.6788681 0.7342603 -0.5191965 0.6788741 0.5191965 -0.1900141 0.6788748 -0.7092416 0.7092375 0.6788708 0.1900435 0.8767245 0.4197303 -0.2349061 0.7860504 0.4197295 -0.4538193 -0.6418018 0.4197394 0.6418018 -0.4538193 0.4197295 0.7860504 0.6418018 0.4197394 -0.6418018 -0.2349061 0.4197303 0.8767245 0.4538193 0.4197295 -0.7860504 0 0.4197335 0.9076474 0.2349061 0.4197303 -0.8767245 0 0.4197335 -0.9076474 -0.2349061 0.4197303 -0.8767245 -0.4538193 0.4197295 -0.7860504 0.2349061 0.4197303 0.8767245 -0.6418018 0.4197394 -0.6418018 0.4538193 0.4197295 0.7860504 -0.7860504 0.4197295 -0.4538193 0.6418018 0.4197394 0.6418018 -0.8767245 0.4197303 -0.2349061 0.7860504 0.4197295 0.4538193 -0.9076474 0.4197335 0 0.8767245 0.4197303 0.2349061 -0.8767245 0.4197303 0.2349061 0.9076474 0.4197335 0 -0.7860504 0.4197295 0.4538193</float_array>
          <technique_common>
            <accessor source="#Ring-mesh-normals-array" count="74" stride="3">
              <param name="X" type="float"/>
              <param name="Y" type="float"/>
              <param name="Z" type="float"/>
            </accessor>
          </technique_common>
        </source>
        <vertices id="Ring-mesh-vertices">
          <input semantic="POSITION" source="#Ring-mesh-positions"/>
        </vertices>
        <polylist material="Black-material" count="96">
          <input semantic="VERTEX" source="#Ring-mesh-vertices" offset="0"/>
          <input semantic="NORMAL" source="#Ring-mesh-normals" offset="1"/>
          <vcount>4 4 4 4 4 4 4 4 4 4 4 4 4 4 4 4 4 4 4 4 4 4 4 4 4 4 4 4 4 4 4 4 4 4 4 4 4 4 4 4 4 4 4 4 4 4 4 4 4 4 4 4 4 4 4 4 4 4 4 4 4 4 4 4 4 4 4 4 4 4 4 4 4 4 4 4 4 4 4 4 4 4 4 4 4 4 4 4 4 4 4 4 4 4 4 4 </vcount>
          <p>3 0 28 1 26 2 2 0 11 0 35 3 39 4 10 0 19 0 43 5 45 6 18 0 8 0 37 7 36 8 7 0 16 0 46 9 47 10 15 0 24 0 25 11 27 12 23 0 5 0 32 13 30 14 4 0 13 0 44 15 42 16 12 0 21 0 41 17 29 18 20 0 10 0 39 4 38 19 9 0 18 0 45 6 31 20 17 0 2 0 26 2 0 21 1 0 1 0 0 21 25 11 24 0 22 0 40 22 41 17 21 0 14 0 33 23 44 15 13 0 6 0 34 24 32 13 5 0 17 0 31 20 46 9 16 0 9 0 38 19 37 7 8 0 20 0 29 18 43 5 19 0 12 0 42 16 35 3 11 0 4 0 30 14 28 1 3 0 23 0 27 12 40 22 22 0 15 0 47 10 33 23 14 0 7 0 36 8 34 24 6 0 52 25 48 25 80 26 84 27 68 25 67 25 70 28 88 29 78 25 75 25 74 30 92 31 63 25 60 25 86 32 87 33 73 25 71 25 90 34 91 35 83 25 81 25 94 36 95 37 51 25 53 25 54 38 50 39 56 25 57 25 58 40 55 41 62 25 64 25 65 42 61 43 67 25 66 25 72 44 70 28 75 25 76 25 77 45 74 30 48 25 49 25 82 46 80 26 49 25 83 25 95 37 82 46 79 25 62 25 61 43 93 47 69 25 56 25 55 41 89 48 59 25 51 25 50 39 85 49 76 25 73 25 91 35 77 45 66 25 63 25 87 33 72 44 64 25 78 25 92 31 65 42 57 25 68 25 88 29 58 40 53 25 52 25 84 27 54 38 81 25 79 25 93 47 94 36 71 25 69 25 89 48 90 34 60 25 59 25 85 49 86 32 97 50 96 51 72 44 87 33 99 52 98 53 94 36 93 47 96 51 100 54 70 28 72 44 98 53 101 55 95 37 94 36 100 54 102 56 88 29 70 28 101 55 103 57 82 46 95 37 102 56 104 58 58 40 88 29 104 58 105 59 55 41 58 40 105 59 106 60 89 48 55 41 106 60 107 61 90 34 89 48 103 57 108 62 80 26 82 46 107 61 109 63 91 35 90 34 108 62 110 64 84 27 80 26 109 63 111 65 77 45 91 35 110 64 112 66 54 38 84 27 111 65 113 67 74 30 77 45 112 66 114 68 50 39 54 38 113 67 115 69 92 31 74 30 114 68 116 70 85 49 50 39 115 69 117 71 65 42 92 31 116 70 118 72 86 32 85 49 117 71 119 73 61 43 65 42 118 72 97 50 87 33 86 32 119 73 99 52 93 47 61 43 41 17 40 22 99 52 119 73 36 8 37 7 97 50 118 72 29 18 41 17 119 73 117 71 34 24 36 8 118 72 116 70 43 5 29 18 117 71 115 69 32 13 34 24 116 70 114 68 45 6 43 5 115 69 113 67 30 14 32 13 114 68 112 66 31 20 45 6 113 67 111 65 28 1 30 14 112 66 110 64 46 9 31 20 111 65 109 63 26 2 28 1 110 64 108 62 47 10 46 9 109 63 107 61 0 21 26 2 108 62 103 57 33 23 47 10 107 61 106 60 44 15 33 23 106 60 105 59 42 16 44 15 105 59 104 58 35 3 42 16 104 58 102 56 25 11 0 21 103 57 101 55 39 4 35 3 102 56 100 54 27 12 25 11 101 55 98 53 38 19 39 4 100 54 96 51 40 22 27 12 98 53 99 52 37 7 38 19 96 51 97 50</p>
        </polylist>
      </mesh>
    </geometry>
  </library_geometries>
  <library_visual_scenes>
    <visual_scene id="Scene" name="Scene">
      <node id="Button" name="Button" type="NODE">
        <matrix sid="transform">1 0 0 1.43579e-9 0 1 0 0 0 0 1 -5.82077e-9 0 0 0 1</matrix>
        <instance_geometry url="#Button-mesh" name="Button">
          <bind_material>
            <technique_common>
              <instance_material symbol="Color-material" target="#Color-material"/>
            </technique_common>
          </bind_material>
        </instance_geometry>
      </node>
      <node id="Ring" name="Ring" type="NODE">
        <matrix sid="transform">1 0 0 1.96354e-9 0 1 0 0.06874995 0 0 1 -5.41719e-9 0 0 0 1</matrix>
        <instance_geometry url="#Ring-mesh" name="Ring">
          <bind_material>
            <technique_common>
              <instance_material symbol="Black-material" target="#Black-material"/>
            </technique_common>
          </bind_material>
        </instance_geometry>
      </node>
    </visual_scene>
  </library_visual_scenes>
  <scene>
    <instance_visual_scene url="#Scene"/>
  </scene>
</COLLADA>